Debate CV
…
  Home

  Sections

  Table

Debate CV

James Laird-Smith

Judging

cv_entries_judging

## # A tibble: 31 x 6
##    competition         year type       broke reached         date_first_day
##    <chr>              <dbl> <chr>      <lgl> <chr>           <date>        
##  1 WUDC                2019 Universit… TRUE  Semi-Finals     2018-12-27    
##  2 SANUDC              2011 Universit… TRUE  Semi-Finals     2011-07-09    
##  3 LSE Open            2018 Universit… TRUE  Quarter Finals  2018-02-10    
##  4 Oxford IV           2018 Universit… TRUE  Quarter Finals  2018-11-09    
##  5 Inner Temple Open   2019 Universit… TRUE  Chaired Semi-F… 2019-01-18    
##  6 Imperial Open       2019 Universit… TRUE  Final           2019-10-12    
##  7 Cape Town Open      2017 Universit… TRUE  FInals          2017-04-29    
##  8 WUDC                2014 Universit… FALSE <NA>            2013-12-27    
##  9 UCT 150th Year Op…  2015 Universit… TRUE  Chaired Semi-F… 2015-07-24    
## 10 WUDC                2016 Universit… FALSE <NA>            2015-12-27    
## # … with 21 more rows
…
